^C:\USERS\ADMINISTRATOR\SOURCE\REPOS\KHH0103\KHH0103\RSP2\MAIN.CPP|C:\USERS\ADMINISTRATOR\SOURCE\REPOS\KHH0103\KHH0103\RSP2\MONSTER.CPP|C:\USERS\ADMINISTRATOR\SOURCE\REPOS\KHH0103\KHH0103\RSP2\USER.CPP
C:\USERS\ADMINISTRATOR\SOURCE\REPOS\KHH0103\KHH0103\RSP2\DEBUG\VC142.PDB
C:\USERS\ADMINISTRATOR\SOURCE\REPOS\KHH0103\KHH0103\RSP2\DEBUG\VC142.IDB
C:\USERS\ADMINISTRATOR\SOURCE\REPOS\KHH0103\KHH0103\RSP2\DEBUG\MONSTER.OBJ
C:\USERS\ADMINISTRATOR\SOURCE\REPOS\KHH0103\KHH0103\RSP2\DEBUG\MAIN.OBJ
^C:\USERS\ADMINISTRATOR\SOURCE\REPOS\KHH0103\KHH0103\RSP2\BATTLE.CPP|C:\USERS\ADMINISTRATOR\SOURCE\REPOS\KHH0103\KHH0103\RSP2\MAIN.CPP
C:\USERS\ADMINISTRATOR\SOURCE\REPOS\KHH0103\KHH0103\RSP2\DEBUG\VC142.PDB
C:\USERS\ADMINISTRATOR\SOURCE\REPOS\KHH0103\KHH0103\RSP2\DEBUG\VC142.IDB
C:\USERS\ADMINISTRATOR\SOURCE\REPOS\KHH0103\KHH0103\RSP2\DEBUG\MAIN.OBJ
C:\USERS\ADMINISTRATOR\SOURCE\REPOS\KHH0103\KHH0103\RSP2\DEBUG\BATTLE.OBJ
^C:\USERS\ADMINISTRATOR\SOURCE\REPOS\KHH0103\KHH0103\RSP2\BATTLE.CPP|C:\USERS\ADMINISTRATOR\SOURCE\REPOS\KHH0103\KHH0103\RSP2\MAIN.CPP|C:\USERS\ADMINISTRATOR\SOURCE\REPOS\KHH0103\KHH0103\RSP2\SELECT.CPP|C:\USERS\ADMINISTRATOR\SOURCE\REPOS\KHH0103\KHH0103\RSP2\USER.CPP
C:\USERS\ADMINISTRATOR\SOURCE\REPOS\KHH0103\KHH0103\RSP2\DEBUG\VC142.PDB
C:\USERS\ADMINISTRATOR\SOURCE\REPOS\KHH0103\KHH0103\RSP2\DEBUG\VC142.IDB
C:\USERS\ADMINISTRATOR\SOURCE\REPOS\KHH0103\KHH0103\RSP2\DEBUG\MAIN.OBJ
C:\USERS\ADMINISTRATOR\SOURCE\REPOS\KHH0103\KHH0103\RSP2\DEBUG\USER.OBJ
C:\USERS\ADMINISTRATOR\SOURCE\REPOS\KHH0103\KHH0103\RSP2\DEBUG\SELECT.OBJ
C:\USERS\ADMINISTRATOR\SOURCE\REPOS\KHH0103\KHH0103\RSP2\DEBUG\BATTLE.OBJ
^C:\USERS\ADMINISTRATOR\SOURCE\REPOS\KHH0103\KHH0103\RSP2\MONSTER.CPP|C:\USERS\ADMINISTRATOR\SOURCE\REPOS\KHH0103\KHH0103\RSP2\SELECT.CPP
C:\USERS\ADMINISTRATOR\SOURCE\REPOS\KHH0103\KHH0103\RSP2\DEBUG\VC142.PDB
C:\USERS\ADMINISTRATOR\SOURCE\REPOS\KHH0103\KHH0103\RSP2\DEBUG\VC142.IDB
C:\USERS\ADMINISTRATOR\SOURCE\REPOS\KHH0103\KHH0103\RSP2\DEBUG\SELECT.OBJ
^C:\USERS\ADMINISTRATOR\SOURCE\REPOS\KHH0103\KHH0103\RSP2\MONSTER.CPP|C:\USERS\ADMINISTRATOR\SOURCE\REPOS\KHH0103\KHH0103\RSP2\USER.CPP
C:\USERS\ADMINISTRATOR\SOURCE\REPOS\KHH0103\KHH0103\RSP2\DEBUG\VC142.PDB
C:\USERS\ADMINISTRATOR\SOURCE\REPOS\KHH0103\KHH0103\RSP2\DEBUG\VC142.IDB
C:\USERS\ADMINISTRATOR\SOURCE\REPOS\KHH0103\KHH0103\RSP2\DEBUG\USER.OBJ
C:\USERS\ADMINISTRATOR\SOURCE\REPOS\KHH0103\KHH0103\RSP2\DEBUG\MONSTER.OBJ
^C:\USERS\ADMINISTRATOR\SOURCE\REPOS\KHH0103\KHH0103\RSP2\MAIN.CPP|C:\USERS\ADMINISTRATOR\SOURCE\REPOS\KHH0103\KHH0103\RSP2\SELECT.CPP
C:\USERS\ADMINISTRATOR\SOURCE\REPOS\KHH0103\KHH0103\RSP2\DEBUG\VC142.PDB
C:\USERS\ADMINISTRATOR\SOURCE\REPOS\KHH0103\KHH0103\RSP2\DEBUG\VC142.IDB
C:\USERS\ADMINISTRATOR\SOURCE\REPOS\KHH0103\KHH0103\RSP2\DEBUG\SELECT.OBJ
C:\USERS\ADMINISTRATOR\SOURCE\REPOS\KHH0103\KHH0103\RSP2\DEBUG\MAIN.OBJ
^C:\USERS\ADMINISTRATOR\SOURCE\REPOS\KHH0103\KHH0103\RSP2\MAIN.CPP|C:\USERS\ADMINISTRATOR\SOURCE\REPOS\KHH0103\KHH0103\RSP2\MONSTER.CPP
C:\USERS\ADMINISTRATOR\SOURCE\REPOS\KHH0103\KHH0103\RSP2\DEBUG\VC142.PDB
C:\USERS\ADMINISTRATOR\SOURCE\REPOS\KHH0103\KHH0103\RSP2\DEBUG\VC142.IDB
C:\USERS\ADMINISTRATOR\SOURCE\REPOS\KHH0103\KHH0103\RSP2\DEBUG\MONSTER.OBJ
^C:\USERS\ADMINISTRATOR\SOURCE\REPOS\KHH0103\KHH0103\RSP2\BATTLE.CPP|C:\USERS\ADMINISTRATOR\SOURCE\REPOS\KHH0103\KHH0103\RSP2\MAIN.CPP|C:\USERS\ADMINISTRATOR\SOURCE\REPOS\KHH0103\KHH0103\RSP2\MONSTER.CPP
C:\USERS\ADMINISTRATOR\SOURCE\REPOS\KHH0103\KHH0103\RSP2\DEBUG\VC142.PDB
C:\USERS\ADMINISTRATOR\SOURCE\REPOS\KHH0103\KHH0103\RSP2\DEBUG\VC142.IDB
C:\USERS\ADMINISTRATOR\SOURCE\REPOS\KHH0103\KHH0103\RSP2\DEBUG\MAIN.OBJ
^C:\USERS\ADMINISTRATOR\SOURCE\REPOS\KHH0103\KHH0103\RSP2\BATTLE.CPP|C:\USERS\ADMINISTRATOR\SOURCE\REPOS\KHH0103\KHH0103\RSP2\MAIN.CPP|C:\USERS\ADMINISTRATOR\SOURCE\REPOS\KHH0103\KHH0103\RSP2\MONSTER.CPP|C:\USERS\ADMINISTRATOR\SOURCE\REPOS\KHH0103\KHH0103\RSP2\SELECT.CPP|C:\USERS\ADMINISTRATOR\SOURCE\REPOS\KHH0103\KHH0103\RSP2\USER.CPP
C:\USERS\ADMINISTRATOR\SOURCE\REPOS\KHH0103\KHH0103\RSP2\DEBUG\VC142.PDB
C:\USERS\ADMINISTRATOR\SOURCE\REPOS\KHH0103\KHH0103\RSP2\DEBUG\VC142.IDB
C:\USERS\ADMINISTRATOR\SOURCE\REPOS\KHH0103\KHH0103\RSP2\DEBUG\MAIN.OBJ
C:\USERS\ADMINISTRATOR\SOURCE\REPOS\KHH0103\KHH0103\RSP2\DEBUG\SELECT.OBJ
C:\USERS\ADMINISTRATOR\SOURCE\REPOS\KHH0103\KHH0103\RSP2\DEBUG\MONSTER.OBJ
C:\USERS\ADMINISTRATOR\SOURCE\REPOS\KHH0103\KHH0103\RSP2\DEBUG\BATTLE.OBJ
^C:\USERS\ADMINISTRATOR\SOURCE\REPOS\KHH0103\KHH0103\RSP2\MONSTER.CPP
C:\USERS\ADMINISTRATOR\SOURCE\REPOS\KHH0103\KHH0103\RSP2\DEBUG\MONSTER.OBJ
^C:\USERS\ADMINISTRATOR\SOURCE\REPOS\KHH0103\KHH0103\RSP2\SELECT.CPP
C:\USERS\ADMINISTRATOR\SOURCE\REPOS\KHH0103\KHH0103\RSP2\DEBUG\SELECT.OBJ
^C:\USERS\ADMINISTRATOR\SOURCE\REPOS\KHH0103\KHH0103\RSP2\MAIN.CPP|C:\USERS\ADMINISTRATOR\SOURCE\REPOS\KHH0103\KHH0103\RSP2\USER.CPP
C:\USERS\ADMINISTRATOR\SOURCE\REPOS\KHH0103\KHH0103\RSP2\DEBUG\VC142.PDB
C:\USERS\ADMINISTRATOR\SOURCE\REPOS\KHH0103\KHH0103\RSP2\DEBUG\VC142.IDB
C:\USERS\ADMINISTRATOR\SOURCE\REPOS\KHH0103\KHH0103\RSP2\DEBUG\USER.OBJ
C:\USERS\ADMINISTRATOR\SOURCE\REPOS\KHH0103\KHH0103\RSP2\DEBUG\MAIN.OBJ
^C:\USERS\ADMINISTRATOR\SOURCE\REPOS\KHH0103\KHH0103\RSP2\MAIN.CPP
C:\USERS\ADMINISTRATOR\SOURCE\REPOS\KHH0103\KHH0103\RSP2\DEBUG\VC142.PDB
^C:\USERS\ADMINISTRATOR\SOURCE\REPOS\KHH0103\KHH0103\RSP2\BATTLE.CPP|C:\USERS\ADMINISTRATOR\SOURCE\REPOS\KHH0103\KHH0103\RSP2\USER.CPP
C:\USERS\ADMINISTRATOR\SOURCE\REPOS\KHH0103\KHH0103\RSP2\DEBUG\VC142.PDB
C:\USERS\ADMINISTRATOR\SOURCE\REPOS\KHH0103\KHH0103\RSP2\DEBUG\VC142.IDB
C:\USERS\ADMINISTRATOR\SOURCE\REPOS\KHH0103\KHH0103\RSP2\DEBUG\USER.OBJ
C:\USERS\ADMINISTRATOR\SOURCE\REPOS\KHH0103\KHH0103\RSP2\DEBUG\BATTLE.OBJ
^C:\USERS\ADMINISTRATOR\SOURCE\REPOS\KHH0103\KHH0103\RSP2\USER.CPP
C:\USERS\ADMINISTRATOR\SOURCE\REPOS\KHH0103\KHH0103\RSP2\DEBUG\VC142.PDB
^C:\USERS\ADMINISTRATOR\SOURCE\REPOS\KHH0103\KHH0103\RSP2\BATTLE.CPP
C:\USERS\ADMINISTRATOR\SOURCE\REPOS\KHH0103\KHH0103\RSP2\DEBUG\VC142.PDB
C:\USERS\ADMINISTRATOR\SOURCE\REPOS\KHH0103\KHH0103\RSP2\DEBUG\VC142.IDB
C:\USERS\ADMINISTRATOR\SOURCE\REPOS\KHH0103\KHH0103\RSP2\DEBUG\BATTLE.OBJ
