^C:\USERS\ADMINISTRATOR\DOCUMENTS\KHH0103\MYARRAY\MYARRAY.CPP
C:\USERS\ADMINISTRATOR\DOCUMENTS\KHH0103\MYARRAY\DEBUG\VC142.PDB
C:\USERS\ADMINISTRATOR\DOCUMENTS\KHH0103\MYARRAY\DEBUG\VC142.IDB
C:\USERS\ADMINISTRATOR\DOCUMENTS\KHH0103\MYARRAY\DEBUG\MYARRAY.OBJ
